module Golang-MongoDB-Atlas

go 1.18

require go.mongodb.org/mongo-driver v1.10.2

require (
	github.com/golang/snappy v0.0.4 // indirect
	github.com/klauspost/compress v1.15.11 // indirect
	github.com/montanaflynn/stats v0.6.6 // indirect
	github.com/pkg/errors v0.9.1 // indirect
	github.com/xdg-go/pbkdf2 v1.0.0 // indirect
	github.com/xdg-go/scram v1.1.1 // indirect
	github.com/xdg-go/stringprep v1.0.3 // indirect
	github.com/youmark/pkcs8 v0.0.0-20201027041543-1326539a0a0a // indirect
	golang.org/x/crypto v0.0.0-20220926161630-eccd6366d1be // indirect
	golang.org/x/sync v0.0.0-20220929204114-8fcdb60fdcc0 // indirect
	golang.org/x/text v0.3.7 // indirect
)
