{
    "status": "SUCCESS",
    "entity": "userGetIdentity",
    "state": "userGetIdentitySuccess",
    "message": "OK",
    "data": {
        "privy_id": "HEN64274",
        "authorized_at": "2022-10-04T13:34:58+07:00",
        "application_id": "3f1d0db1-6419-4b8c-bc66-5dd7f5b75709",
        "identity": {
            "nik": "6472052707010004",
            "name": "BHENEDICTHOADRIELNATALAWAPAMPANG",
            "dob": "2001-07-28"
        },
        "contact": {
            "email": "ditoadriel@gmail.com",
            "phone": "+6282358835557"
        }
    }
}